[gd_scene load_steps=4 format=2]

[ext_resource path="res://assets/BananaMesh.mesh" type="ArrayMesh" id=1]
[ext_resource path="res://src/BananaSoft.cs" type="Script" id=2]

[sub_resource type="ConcavePolygonShape" id=4]
data = PoolVector3Array( -0.4502, 0.919, 0.4869, -0.4184, -0.305, 0.5324, -0.7942, -0.2791, -0.2065, -0.4016, -0.266, -0.8083, 0.2971, -0.266, -0.8083, 0.283, 0.8922, -0.789, 0.2971, -0.266, -0.8083, 0.7238, -0.2811, -0.2641, 0.7097, 0.9079, -0.2829, 0.3938, 0.9253, 0.4583, 0.422, -0.3031, 0.4734, -0.4184, -0.305, 0.5324, -0.7691, 0.9341, -0.2145, -0.3909, 0.9266, -0.7877, -0.3304, 1.9147, -0.8568, 0.7238, -0.2811, -0.2641, 0.422, -0.3031, 0.4734, 0.3938, 0.9253, 0.4583, -0.7691, 0.9341, -0.2145, -0.7942, -0.2791, -0.2065, -0.4016, -0.266, -0.8083, 0.2485, 1.8793, -0.838, 0.6094, 2.0209, -0.4209, 0.4308, 2.5914, -0.7106, -0.4502, 0.919, 0.4869, -0.3971, 2.2447, 0.1876, 0.329, 2.2335, 0.1762, -0.3909, 0.9266, -0.7877, 0.283, 0.8922, -0.789, 0.2485, 1.8793, -0.838, 0.7097, 0.9079, -0.2829, 0.6094, 2.0209, -0.4209, 0.2485, 1.8793, -0.838, 0.3938, 0.9253, 0.4583, 0.329, 2.2335, 0.1762, 0.6094, 2.0209, -0.4209, -0.7691, 0.9341, -0.2145, -0.6625, 2.0757, -0.3957, -0.3971, 2.2447, 0.1876, -0.3806, 2.6323, -0.6526, -0.1549, 2.8833, -0.8246, -0.0773, 2.9727, -0.6851, 0.6094, 2.0209, -0.4209, 0.329, 2.2335, 0.1762, 0.2731, 2.7617, -0.3329, -0.3304, 1.9147, -0.8568, -0.185, 2.5024, -0.9485, -0.3806, 2.6323, -0.6526, -0.6625, 2.0757, -0.3957, -0.3806, 2.6323, -0.6526, -0.1902, 2.772, -0.3005, 0.329, 2.2335, 0.1762, -0.3971, 2.2447, 0.1876, -0.1902, 2.772, -0.3005, 0.2485, 1.8793, -0.838, 0.1854, 2.4788, -0.9551, -0.185, 2.5024, -0.9485, 0.093, 2.7916, -0.9306, 0.1957, 2.8601, -0.8334, 0.2441, 3.2027, -1.1293, -0.1902, 2.772, -0.3005, -0.0773, 2.9727, -0.6851, 0.1229, 2.965, -0.6909, -0.185, 2.5024, -0.9485, 0.1854, 2.4788, -0.9551, 0.093, 2.7916, -0.9306, 0.1854, 2.4788, -0.9551, 0.4308, 2.5914, -0.7106, 0.1957, 2.8601, -0.8334, 0.4308, 2.5914, -0.7106, 0.2731, 2.7617, -0.3329, 0.1229, 2.965, -0.6909, -0.185, 2.5024, -0.9485, -0.0668, 2.8025, -0.9355, -0.1549, 2.8833, -0.8246, 0.2441, 3.2027, -1.1293, 0.1713, 3.3075, -0.9868, 0.1083, 3.3688, -1.1523, 0.1957, 2.8601, -0.8334, 0.1229, 2.965, -0.6909, 0.1713, 3.3075, -0.9868, -0.0668, 2.8025, -0.9355, -0.0184, 3.1451, -1.2313, -0.1065, 3.2258, -1.1205, -0.1549, 2.8833, -0.8246, -0.1065, 3.2258, -1.1205, -0.0289, 3.3152, -0.981, 0.1229, 2.965, -0.6909, -0.0773, 2.9727, -0.6851, -0.0289, 3.3152, -0.981, 0.093, 2.7916, -0.9306, 0.1413, 3.1341, -1.2265, -0.0184, 3.1451, -1.2313, 0.0981, 3.3095, -1.2342, 0.1083, 3.3688, -1.1523, 0.0133, 3.3408, -1.198, -0.0184, 3.1451, -1.2313, 0.0435, 3.3132, -1.2359, 0.0133, 3.3408, -1.198, -0.1065, 3.2258, -1.1205, 0.0133, 3.3408, -1.198, 0.0398, 3.3714, -1.1503, 0.1713, 3.3075, -0.9868, -0.0289, 3.3152, -0.981, 0.0398, 3.3714, -1.1503, -0.0184, 3.1451, -1.2313, 0.1413, 3.1341, -1.2265, 0.0981, 3.3095, -1.2342, 0.1413, 3.1341, -1.2265, 0.2441, 3.2027, -1.1293, 0.1332, 3.3329, -1.201, -0.4184, -0.305, 0.5324, -0.3789, -1.8304, 0.2405, -0.7469, -1.6164, -0.4001, 0.2734, -1.3997, -1.0216, -0.4056, -1.4125, -0.9764, -0.317, -2.5699, -1.5307, -0.7942, -0.2791, -0.2065, -0.7469, -1.6164, -0.4001, -0.4056, -1.4125, -0.9764, -0.4184, -0.305, 0.5324, 0.422, -0.3031, 0.4734, 0.4673, -1.7588, 0.1742, -0.4016, -0.266, -0.8083, -0.4056, -1.4125, -0.9764, 0.2734, -1.3997, -1.0216, 0.7238, -0.2811, -0.2641, 0.7377, -1.5269, -0.5265, 0.4673, -1.7588, 0.1742, 0.2971, -0.266, -0.8083, 0.2734, -1.3997, -1.0216, 0.7377, -1.5269, -0.5265, 0.6111, -2.7905, -1.2123, 0.3779, -3.2119, -1.4768, 0.2412, -3.4265, -1.1858, 0.7377, -1.5269, -0.5265, 0.6111, -2.7905, -1.2123, 0.3846, -3.1462, -0.7301, 0.2734, -1.3997, -1.0216, 0.2367, -2.5582, -1.5625, 0.6111, -2.7905, -1.2123, -0.7469, -1.6164, -0.4001, -0.3789, -1.8304, 0.2405, -0.3063, -3.2065, -0.6971, -0.4056, -1.4125, -0.9764, -0.7469, -1.6164, -0.4001, -0.6005, -2.8709, -1.1374, -0.3789, -1.8304, 0.2405, 0.4673, -1.7588, 0.1742, 0.3846, -3.1462, -0.7301, 0.2367, -2.5582, -1.5625, 0.1519, -3.0717, -1.6881, 0.3779, -3.2119, -1.4768, -0.6005, -2.8709, -1.1374, -0.3063, -3.2065, -0.6971, -0.1757, -3.4629, -1.1659, -0.317, -2.5699, -1.5307, -0.6005, -2.8709, -1.1374, -0.3532, -3.2604, -1.4316, -0.3063, -3.2065, -0.6971, 0.3846, -3.1462, -0.7301, 0.2412, -3.4265, -1.1858, 0.2367, -2.5582, -1.5625, -0.317, -2.5699, -1.5307, -0.1822, -3.0788, -1.669, 0.1519, -3.0717, -1.6881, 0.1313, -3.1615, -1.6948, 0.3223, -3.28, -1.5162, 0.1313, -3.1615, -1.6948, -0.2957, -3.321, -1.478, 0.2067, -3.4614, -1.2702, -0.3532, -3.2604, -1.4316, -0.1757, -3.4629, -1.1659, -0.1456, -3.4921, -1.2534, -0.1822, -3.0788, -1.669, -0.3532, -3.2604, -1.4316, -0.2957, -3.321, -1.478, -0.1757, -3.4629, -1.1659, 0.2412, -3.4265, -1.1858, 0.2067, -3.4614, -1.2702, 0.1519, -3.0717, -1.6881, -0.1822, -3.0788, -1.669, -0.1511, -3.1675, -1.6786, 0.3779, -3.2119, -1.4768, 0.3223, -3.28, -1.5162, 0.2067, -3.4614, -1.2702, -0.4502, 0.919, 0.4869, -0.7942, -0.2791, -0.2065, -0.7691, 0.9341, -0.2145, -0.4016, -0.266, -0.8083, 0.283, 0.8922, -0.789, -0.3909, 0.9266, -0.7877, 0.2971, -0.266, -0.8083, 0.7097, 0.9079, -0.2829, 0.283, 0.8922, -0.789, 0.3938, 0.9253, 0.4583, -0.4184, -0.305, 0.5324, -0.4502, 0.919, 0.4869, -0.7691, 0.9341, -0.2145, -0.3304, 1.9147, -0.8568, -0.6625, 2.0757, -0.3957, 0.7238, -0.2811, -0.2641, 0.3938, 0.9253, 0.4583, 0.7097, 0.9079, -0.2829, -0.7691, 0.9341, -0.2145, -0.4016, -0.266, -0.8083, -0.3909, 0.9266, -0.7877, 0.2485, 1.8793, -0.838, 0.4308, 2.5914, -0.7106, 0.1854, 2.4788, -0.9551, -0.4502, 0.919, 0.4869, 0.329, 2.2335, 0.1762, 0.3938, 0.9253, 0.4583, -0.3909, 0.9266, -0.7877, 0.2485, 1.8793, -0.838, -0.3304, 1.9147, -0.8568, 0.7097, 0.9079, -0.2829, 0.2485, 1.8793, -0.838, 0.283, 0.8922, -0.789, 0.3938, 0.9253, 0.4583, 0.6094, 2.0209, -0.4209, 0.7097, 0.9079, -0.2829, -0.7691, 0.9341, -0.2145, -0.3971, 2.2447, 0.1876, -0.4502, 0.919, 0.4869, -0.3806, 2.6323, -0.6526, -0.0773, 2.9727, -0.6851, -0.1902, 2.772, -0.3005, 0.6094, 2.0209, -0.4209, 0.2731, 2.7617, -0.3329, 0.4308, 2.5914, -0.7106, -0.3304, 1.9147, -0.8568, -0.3806, 2.6323, -0.6526, -0.6625, 2.0757, -0.3957, -0.6625, 2.0757, -0.3957, -0.1902, 2.772, -0.3005, -0.3971, 2.2447, 0.1876, 0.329, 2.2335, 0.1762, -0.1902, 2.772, -0.3005, 0.2731, 2.7617, -0.3329, 0.2485, 1.8793, -0.838, -0.185, 2.5024, -0.9485, -0.3304, 1.9147, -0.8568, 0.093, 2.7916, -0.9306, 0.2441, 3.2027, -1.1293, 0.1413, 3.1341, -1.2265, -0.1902, 2.772, -0.3005, 0.1229, 2.965, -0.6909, 0.2731, 2.7617, -0.3329, -0.185, 2.5024, -0.9485, 0.093, 2.7916, -0.9306, -0.0668, 2.8025, -0.9355, 0.1854, 2.4788, -0.9551, 0.1957, 2.8601, -0.8334, 0.093, 2.7916, -0.9306, 0.4308, 2.5914, -0.7106, 0.1229, 2.965, -0.6909, 0.1957, 2.8601, -0.8334, -0.185, 2.5024, -0.9485, -0.1549, 2.8833, -0.8246, -0.3806, 2.6323, -0.6526, 0.2441, 3.2027, -1.1293, 0.1083, 3.3688, -1.1523, 0.1332, 3.3329, -1.201, 0.1957, 2.8601, -0.8334, 0.1713, 3.3075, -0.9868, 0.2441, 3.2027, -1.1293, -0.0668, 2.8025, -0.9355, -0.1065, 3.2258, -1.1205, -0.1549, 2.8833, -0.8246, -0.1549, 2.8833, -0.8246, -0.0289, 3.3152, -0.981, -0.0773, 2.9727, -0.6851, 0.1229, 2.965, -0.6909, -0.0289, 3.3152, -0.981, 0.1713, 3.3075, -0.9868, 0.093, 2.7916, -0.9306, -0.0184, 3.1451, -1.2313, -0.0668, 2.8025, -0.9355, 0.1332, 3.3329, -1.201, 0.1083, 3.3688, -1.1523, 0.0981, 3.3095, -1.2342, 0.0981, 3.3095, -1.2342, 0.0133, 3.3408, -1.198, 0.0435, 3.3132, -1.2359, 0.1083, 3.3688, -1.1523, 0.0398, 3.3714, -1.1503, 0.0133, 3.3408, -1.198, -0.0184, 3.1451, -1.2313, 0.0133, 3.3408, -1.198, -0.1065, 3.2258, -1.1205, -0.1065, 3.2258, -1.1205, 0.0398, 3.3714, -1.1503, -0.0289, 3.3152, -0.981, 0.1713, 3.3075, -0.9868, 0.0398, 3.3714, -1.1503, 0.1083, 3.3688, -1.1523, -0.0184, 3.1451, -1.2313, 0.0981, 3.3095, -1.2342, 0.0435, 3.3132, -1.2359, 0.1413, 3.1341, -1.2265, 0.1332, 3.3329, -1.201, 0.0981, 3.3095, -1.2342, -0.4184, -0.305, 0.5324, -0.7469, -1.6164, -0.4001, -0.7942, -0.2791, -0.2065, 0.2734, -1.3997, -1.0216, -0.317, -2.5699, -1.5307, 0.2367, -2.5582, -1.5625, -0.7942, -0.2791, -0.2065, -0.4056, -1.4125, -0.9764, -0.4016, -0.266, -0.8083, -0.4184, -0.305, 0.5324, 0.4673, -1.7588, 0.1742, -0.3789, -1.8304, 0.2405, -0.4016, -0.266, -0.8083, 0.2734, -1.3997, -1.0216, 0.2971, -0.266, -0.8083, 0.7238, -0.2811, -0.2641, 0.4673, -1.7588, 0.1742, 0.422, -0.3031, 0.4734, 0.2971, -0.266, -0.8083, 0.7377, -1.5269, -0.5265, 0.7238, -0.2811, -0.2641, 0.6111, -2.7905, -1.2123, 0.2412, -3.4265, -1.1858, 0.3846, -3.1462, -0.7301, 0.7377, -1.5269, -0.5265, 0.3846, -3.1462, -0.7301, 0.4673, -1.7588, 0.1742, 0.2734, -1.3997, -1.0216, 0.6111, -2.7905, -1.2123, 0.7377, -1.5269, -0.5265, -0.7469, -1.6164, -0.4001, -0.3063, -3.2065, -0.6971, -0.6005, -2.8709, -1.1374, -0.4056, -1.4125, -0.9764, -0.6005, -2.8709, -1.1374, -0.317, -2.5699, -1.5307, -0.3789, -1.8304, 0.2405, 0.3846, -3.1462, -0.7301, -0.3063, -3.2065, -0.6971, 0.2367, -2.5582, -1.5625, 0.3779, -3.2119, -1.4768, 0.6111, -2.7905, -1.2123, -0.6005, -2.8709, -1.1374, -0.1757, -3.4629, -1.1659, -0.3532, -3.2604, -1.4316, -0.317, -2.5699, -1.5307, -0.3532, -3.2604, -1.4316, -0.1822, -3.0788, -1.669, -0.3063, -3.2065, -0.6971, 0.2412, -3.4265, -1.1858, -0.1757, -3.4629, -1.1659, 0.2367, -2.5582, -1.5625, -0.1822, -3.0788, -1.669, 0.1519, -3.0717, -1.6881, 0.1519, -3.0717, -1.6881, 0.3223, -3.28, -1.5162, 0.3779, -3.2119, -1.4768, -0.2957, -3.321, -1.478, 0.1313, -3.1615, -1.6948, -0.1511, -3.1675, -1.6786, 0.1313, -3.1615, -1.6948, 0.2067, -3.4614, -1.2702, 0.3223, -3.28, -1.5162, 0.2067, -3.4614, -1.2702, -0.2957, -3.321, -1.478, -0.1456, -3.4921, -1.2534, -0.3532, -3.2604, -1.4316, -0.1456, -3.4921, -1.2534, -0.2957, -3.321, -1.478, -0.1822, -3.0788, -1.669, -0.2957, -3.321, -1.478, -0.1511, -3.1675, -1.6786, -0.1757, -3.4629, -1.1659, 0.2067, -3.4614, -1.2702, -0.1456, -3.4921, -1.2534, 0.1519, -3.0717, -1.6881, -0.1511, -3.1675, -1.6786, 0.1313, -3.1615, -1.6948, 0.3779, -3.2119, -1.4768, 0.2067, -3.4614, -1.2702, 0.2412, -3.4265, -1.1858 )

[node name="BananaSoft" type="SoftBody"]
transform = Transform( 1, 0, 0, 0, 1, 0, 0, 0, 1, 0.0930519, 0.0558167, 0.232355 )
mesh = ExtResource( 1 )
simulation_precision = 100
total_mass = 2.0
linear_stiffness = 0.1
areaAngular_stiffness = 0.09
volume_stiffness = 0.11
script = ExtResource( 2 )

[node name="Interaction" type="Area" parent="."]
transform = Transform( 1, 0, 0, 0, 1, 0, 0, 0, 1, 0, -0.0102245, 0.106279 )
collision_layer = 2
collision_mask = 2

[node name="InteractionCol" type="CollisionShape" parent="Interaction"]
transform = Transform( 0.4, 0, 0, 0, 0.4, 0, 0, 0, 0.4, 0, 0, 0 )
shape = SubResource( 4 )
