[gd_scene load_steps=5 format=2]

[ext_resource path="res://assets/skybox1.jpg" type="Texture" id=1]
[ext_resource path="res://src/GombeEnvironment.cs" type="Script" id=2]

[sub_resource type="PanoramaSky" id=1]
panorama = ExtResource( 1 )

[sub_resource type="Environment" id=2]
background_mode = 2
background_sky = SubResource( 1 )
ambient_light_color = Color( 0.984314, 1, 0.909804, 1 )
ambient_light_energy = 1.77
fog_depth_enabled = false
ssao_enabled = true
ssao_radius = 3.22
ssao_intensity = 9.0
ssao_radius2 = 0.44
ssao_intensity2 = 2.78

[node name="Environment" type="Spatial"]
script = ExtResource( 2 )

[node name="WorldEnvironment" type="WorldEnvironment" parent="."]
environment = SubResource( 2 )

[node name="DirectionalLight" type="DirectionalLight" parent="."]
transform = Transform( -0.0708284, 0.919831, -0.385868, -0.393256, 0.329757, 0.85826, 0.916697, 0.212534, 0.338373, 0, 0, 0 )
shadow_enabled = true
