[gd_scene load_steps=4 format=2]

[ext_resource path="res://assets/blender/palette1.material" type="Material" id=1]
[ext_resource path="res://assets/blender/RockPush.glb" type="PackedScene" id=2]

[sub_resource type="ConcavePolygonShape" id=1]
data = PoolVector3Array( -3.2759, 1, 1, -1, 16.0735, 1, -1, 1, 1, -3.2759, 1, 1, -3.2759, 16.0735, 1, -1, 16.0735, 1, -1, -1, -1, 1, 1, -1, -1, 1, -1, -1, -1, -1, 1, -1, -1, 1, 1, -1, 1, 1, -1, 1, 15.8773, 1, 1, 1, 1, 1, 1, -1, 1, 15.8773, -1, 1, 15.8773, 1, 1, -1, 1, -1, 1, 1, 1, 1, 1, 1, -1, 1, -1, -1, 1, -1, 1, 1, 3.0991, -1, 1, 1, -16.0585, 1, 1, -1, 1, 3.0991, -1, 1, 3.0991, -16.0585, 1, 1, -16.0585, 1, 1, 1, -1, -1, 1, 1, -1, 1, -1, 1, 1, -1, 1, 1, 1, -1, 1, 1, -3.2759, -1, 1, -3.2759, 1, -1, -3.2759, 1, 1, -3.2759, -1, 1, -3.2759, -1, -1, -3.2759, 1, -1, -1, -1, -1, 1, -16.0585, -1, 1, -1, -1, -1, -1, -1, -1, -16.0585, -1, 1, -16.0585, -1, -1, 1, -1, -3.2759, -1, -1, -1, -1, -1, -1, 1, -1, -3.2759, 1, -1, -3.2759, -1, -1, -1, -1, 1, -3.2759, 1, 1, -1, 1, 1, -1, -1, 1, -3.2759, -1, 1, -3.2759, 1, 1, -1, 16.0735, 1, -3.2759, 16.0735, -1, -1, 16.0735, -1, -1, 16.0735, 1, -3.2759, 16.0735, 1, -3.2759, 16.0735, -1, -1, 1, 1, -1, 16.0735, -1, -1, 1, -1, -1, 1, 1, -1, 16.0735, 1, -1, 16.0735, -1, -1, 1, -1, -3.2759, 16.0735, -1, -3.2759, 1, -1, -1, 1, -1, -1, 16.0735, -1, -3.2759, 16.0735, -1, -3.2759, 1, -1, -3.2759, 16.0735, 1, -3.2759, 1, 1, -3.2759, 1, -1, -3.2759, 16.0735, -1, -3.2759, 16.0735, 1, 3.0991, 1, -1, 8.8406, 15.8773, -1, 3.0991, 15.8773, -1, 3.0991, 1, -1, 8.8406, 1, -1, 8.8406, 15.8773, -1, 1, -1, -1, 3.0991, 1, -1, 1, 1, -1, 1, -1, -1, 3.0991, -1, -1, 3.0991, 1, -1, 1, 1, 1, 3.0991, -1, 1, 1, -1, 1, 1, 1, 1, 3.0991, 1, 1, 3.0991, -1, 1, -3.2759, -1, -1, -1, -16.0585, -1, -1, -1, -1, -3.2759, -1, -1, -3.2759, -16.0585, -1, -1, -16.0585, -1, 1, 15.8773, -1, 3.0991, 15.8773, 1, 1, 15.8773, 1, 1, 15.8773, -1, 3.0991, 15.8773, -1, 3.0991, 15.8773, 1, 3.0991, 1, 1, 8.8406, -1, 1, 3.0991, -1, 1, 3.0991, 1, 1, 8.8406, 1, 1, 8.8406, -1, 1, 3.0991, 1, -1, 1, 15.8773, -1, 1, 1, -1, 3.0991, 1, -1, 3.0991, 15.8773, -1, 1, 15.8773, -1, 1, 1, 1, 3.0991, 15.8773, 1, 3.0991, 1, 1, 1, 1, 1, 1, 15.8773, 1, 3.0991, 15.8773, 1, -5.8984, -16.0585, -1, -5.8984, 11.4604, 1, -5.8984, -16.0585, 1, -5.8984, -16.0585, -1, -5.8984, 11.4604, -1, -5.8984, 11.4604, 1, -3.2759, -16.0585, -1, -1, -16.0585, -3.4306, -1, -16.0585, -1, -3.2759, -16.0585, -1, -3.2759, -16.0585, -3.4306, -1, -16.0585, -3.4306, 1, -21.4216, -1, -1, -21.4216, -3.4306, -1, -21.4216, -1, 1, -21.4216, -1, 1, -21.4216, -3.4306, -1, -21.4216, -3.4306, 3.0991, -16.0585, -1, 8.8406, -1, -1, 3.0991, -1, -1, 3.0991, -16.0585, -1, 8.8406, -16.0585, -1, 8.8406, -1, -1, -1, -1, 1, -3.2759, -16.0585, 1, -3.2759, -1, 1, -1, -1, 1, -1, -16.0585, 1, -3.2759, -16.0585, 1, 1, -1, -1, 3.0991, -16.0585, -1, 3.0991, -1, -1, 1, -1, -1, 1, -16.0585, -1, 3.0991, -16.0585, -1, -3.2759, -1, 1, -3.2759, -16.0585, -1, -3.2759, -1, -1, -3.2759, -1, 1, -3.2759, -16.0585, 1, -3.2759, -16.0585, -1, 1, -1, 1, -1, -16.0585, 1, -1, -1, 1, 1, -1, 1, 1, -16.0585, 1, -1, -16.0585, 1, -1, -21.4216, -1, 1, -21.4216, 1, 1, -21.4216, -1, -1, -21.4216, -1, -1, -21.4216, 1, 1, -21.4216, 1, -1, -21.4216, -1, -3.2759, -21.4216, 1, -1, -21.4216, 1, -1, -21.4216, -1, -3.2759, -21.4216, -1, -3.2759, -21.4216, 1, 1, -21.4216, 1, 3.0991, -21.4216, -1, 1, -21.4216, -1, 1, -21.4216, 1, 3.0991, -21.4216, 1, 3.0991, -21.4216, -1, 3.0991, -16.0585, 1, 1, -21.4216, 1, 1, -16.0585, 1, 3.0991, -16.0585, 1, 3.0991, -21.4216, 1, 1, -21.4216, 1, 3.0991, -21.4216, -1, 9.2207, -16.0585, -1, 3.0991, -16.0585, -1, 3.0991, -21.4216, -1, 9.2207, -21.4216, -1, 9.2207, -16.0585, -1, -1, -16.0585, 1, -3.2759, -21.4216, 1, -3.2759, -16.0585, 1, -1, -16.0585, 1, -1, -21.4216, 1, -3.2759, -21.4216, 1, 1, -16.0585, 1, -1, -21.4216, 1, -1, -16.0585, 1, 1, -16.0585, 1, 1, -21.4216, 1, -1, -21.4216, 1, 1, -16.0585, -1, 3.0991, -16.0585, -3.4306, 3.0991, -16.0585, -1, 1, -16.0585, -1, 1, -16.0585, -3.4306, 3.0991, -16.0585, -3.4306, 3.0991, -21.4216, -3.4306, 9.1161, -21.4216, -5.5703, 3.0991, -21.4216, -5.5703, 3.0991, -21.4216, -3.4306, 9.1161, -21.4216, -3.4306, 9.1161, -21.4216, -5.5703, 1, -16.0585, -3.4306, 3.0991, -0.2778, -3.4306, 3.0991, -16.0585, -3.4306, 1, -16.0585, -3.4306, 1, -0.2778, -3.4306, 3.0991, -0.2778, -3.4306, -1, -21.4216, -3.4306, -3.2759, -21.4216, -5.5703, -3.2759, -21.4216, -3.4306, -1, -21.4216, -3.4306, -1, -21.4216, -5.5703, -3.2759, -21.4216, -5.5703, 3.0991, -21.4216, -1, 1, -21.4216, -3.4306, 1, -21.4216, -1, 3.0991, -21.4216, -1, 3.0991, -21.4216, -3.4306, 1, -21.4216, -3.4306, 6.1576, -11.5051, -3.4306, 9.2161, 0.1411, -1, 6.1576, -11.5051, -1, 6.1576, -11.5051, -3.4306, 9.2161, 0.1411, -3.4306, 9.2161, 0.1411, -1, -1, -21.4216, -1, -3.2759, -21.4216, -3.4306, -3.2759, -21.4216, -1, -1, -21.4216, -1, -1, -21.4216, -3.4306, -3.2759, -21.4216, -3.4306, -3.2759, -21.4216, -3.4306, -5.8984, -21.4216, -1, -3.2759, -21.4216, -1, -3.2759, -21.4216, -3.4306, -5.8984, -21.4216, -3.4306, -5.8984, -21.4216, -1, -1, -16.0585, -1, 1, -16.0585, -3.4306, 1, -16.0585, -1, -1, -16.0585, -1, -1, -16.0585, -3.4306, 1, -16.0585, -3.4306, -3.2759, -16.0585, -5.5703, -1, -21.4216, -5.5703, -1, -16.0585, -5.5703, -3.2759, -16.0585, -5.5703, -3.2759, -21.4216, -5.5703, -1, -21.4216, -5.5703, 1, -16.0585, -5.5703, 3.0991, -21.4216, -5.5703, 3.0991, -16.0585, -5.5703, 1, -16.0585, -5.5703, 1, -21.4216, -5.5703, 3.0991, -21.4216, -5.5703, -1, -16.0585, -5.5703, 1, -21.4216, -5.5703, 1, -16.0585, -5.5703, -1, -16.0585, -5.5703, -1, -21.4216, -5.5703, 1, -21.4216, -5.5703, -3.2759, -21.4216, -5.5703, -5.8984, -21.4216, -3.4306, -3.2759, -21.4216, -3.4306, -3.2759, -21.4216, -5.5703, -5.8984, -21.4216, -5.5703, -5.8984, -21.4216, -3.4306, 3.0991, -21.4216, -3.4306, 1, -21.4216, -5.5703, 1, -21.4216, -3.4306, 3.0991, -21.4216, -3.4306, 3.0991, -21.4216, -5.5703, 1, -21.4216, -5.5703, 1, -21.4216, -3.4306, -1, -21.4216, -5.5703, -1, -21.4216, -3.4306, 1, -21.4216, -3.4306, 1, -21.4216, -5.5703, -1, -21.4216, -5.5703, -3.2759, -16.0585, -5.5703, -3.2759, 15.1226, -3.4306, -3.2759, -16.0585, -3.4306, -3.2759, -16.0585, -5.5703, -3.2759, 15.1226, -5.5703, -3.2759, 15.1226, -3.4306, 1, -16.0585, -5.5703, -1, 15.1226, -5.5703, -1, -16.0585, -5.5703, 1, -16.0585, -5.5703, 1, 15.1226, -5.5703, -1, 15.1226, -5.5703, -3.2759, 15.1226, -3.4306, -1, 15.1226, -5.5703, -1, 15.1226, -3.4306, -3.2759, 15.1226, -3.4306, -3.2759, 15.1226, -5.5703, -1, 15.1226, -5.5703, -1, 15.1226, -3.4306, 1, 15.1226, -5.5703, 1, 15.1226, -3.4306, -1, 15.1226, -3.4306, -1, 15.1226, -5.5703, 1, 15.1226, -5.5703, 1, -16.0585, -3.4306, 1, 15.1226, -5.5703, 1, -16.0585, -5.5703, 1, -16.0585, -3.4306, 1, 15.1226, -3.4306, 1, 15.1226, -5.5703, -3.2759, -16.0585, -3.4306, -1, 15.1226, -3.4306, -1, -16.0585, -3.4306, -3.2759, -16.0585, -3.4306, -3.2759, 15.1226, -3.4306, -1, 15.1226, -3.4306, -1, -16.0585, -3.4306, 1, 15.1226, -3.4306, 1, -16.0585, -3.4306, -1, -16.0585, -3.4306, -1, 15.1226, -3.4306, 1, 15.1226, -3.4306, -1, -16.0585, -5.5703, -3.2759, 15.1226, -5.5703, -3.2759, -16.0585, -5.5703, -1, -16.0585, -5.5703, -1, 15.1226, -5.5703, -3.2759, 15.1226, -5.5703, 1, -0.2778, -3.4306, 3.0991, -0.2778, -5.5703, 3.0991, -0.2778, -3.4306, 1, -0.2778, -3.4306, 1, -0.2778, -5.5703, 3.0991, -0.2778, -5.5703, 3.0991, -16.0585, -5.5703, 8.419, -0.2778, -5.5703, 3.0991, -0.2778, -5.5703, 3.0991, -16.0585, -5.5703, 8.419, -16.0585, -5.5703, 8.419, -0.2778, -5.5703, 1, -0.2778, -5.5703, 3.0991, -0.2778, -7.9521, 3.0991, -0.2778, -5.5703, 1, -0.2778, -5.5703, 1, -0.2778, -7.9521, 3.0991, -0.2778, -7.9521, 1, -16.0585, -5.5703, 1, -0.2778, -3.4306, 1, -16.0585, -3.4306, 1, -16.0585, -5.5703, 1, -0.2778, -5.5703, 1, -0.2778, -3.4306, -5.8984, -16.0585, 1, -5.8984, -21.4216, -1, -5.8984, -16.0585, -1, -5.8984, -16.0585, 1, -5.8984, -21.4216, 1, -5.8984, -21.4216, -1, -5.8984, -21.4216, -1, -5.8984, -16.0585, -3.4306, -5.8984, -16.0585, -1, -5.8984, -21.4216, -1, -5.8984, -21.4216, -3.4306, -5.8984, -16.0585, -3.4306, -5.8984, -21.4216, -3.4306, -5.8984, -16.0585, -5.5703, -5.8984, -16.0585, -3.4306, -5.8984, -21.4216, -3.4306, -5.8984, -21.4216, -5.5703, -5.8984, -16.0585, -5.5703, -3.2759, -16.0585, -5.5703, -5.8984, 11.4604, -5.5703, -5.8984, -16.0585, -5.5703, -3.2759, -16.0585, -5.5703, -3.2759, 11.4604, -5.5703, -5.8984, 11.4604, -5.5703, -3.2759, -21.4216, 1, -5.8984, -16.0585, 1, -3.2759, -16.0585, 1, -3.2759, -21.4216, 1, -5.8984, -21.4216, 1, -5.8984, -16.0585, 1, -5.8984, -16.0585, -3.4306, -5.8984, 11.4604, -1, -5.8984, -16.0585, -1, -5.8984, -16.0585, -3.4306, -5.8984, 11.4604, -3.4306, -5.8984, 11.4604, -1, -3.2759, -16.0585, -5.5703, -5.8984, -21.4216, -5.5703, -3.2759, -21.4216, -5.5703, -3.2759, -16.0585, -5.5703, -5.8984, -16.0585, -5.5703, -5.8984, -21.4216, -5.5703, -3.2759, -21.4216, -1, -5.8984, -21.4216, 1, -3.2759, -21.4216, 1, -3.2759, -21.4216, -1, -5.8984, -21.4216, -1, -5.8984, -21.4216, 1, -3.2759, 11.4604, -1, -5.8984, 11.4604, -3.4306, -3.2759, 11.4604, -3.4306, -3.2759, 11.4604, -1, -5.8984, 11.4604, -1, -5.8984, 11.4604, -3.4306, -3.2759, 11.4604, -3.4306, -5.8984, 11.4604, -5.5703, -3.2759, 11.4604, -5.5703, -3.2759, 11.4604, -3.4306, -5.8984, 11.4604, -3.4306, -5.8984, 11.4604, -5.5703, -3.2759, 11.4604, 1, -5.8984, 11.4604, -1, -3.2759, 11.4604, -1, -3.2759, 11.4604, 1, -5.8984, 11.4604, 1, -5.8984, 11.4604, -1, -5.8984, -16.0585, -5.5703, -5.8984, 11.4604, -3.4306, -5.8984, -16.0585, -3.4306, -5.8984, -16.0585, -5.5703, -5.8984, 11.4604, -5.5703, -5.8984, 11.4604, -3.4306, -3.2759, 11.4604, -3.4306, -4.123, 7.6371, -1.087, -3.2759, 11.4604, -1, -3.2759, 11.4604, -3.4306, -4.123, 7.6371, -3.3436, -4.123, 7.6371, -1.087, -5.8984, -16.0585, 1, -3.2759, 11.4604, 1, -3.2759, -16.0585, 1, -5.8984, -16.0585, 1, -5.8984, 11.4604, 1, -3.2759, 11.4604, 1, -3.2759, -16.0585, -3.4306, -3.2759, 11.4604, -5.5703, -3.2759, -16.0585, -5.5703, -3.2759, -16.0585, -3.4306, -3.2759, 11.4604, -3.4306, -3.2759, 11.4604, -5.5703, -3.2759, -16.0585, 1, -3.2759, 11.4604, -1, -3.2759, -16.0585, -1, -3.2759, -16.0585, 1, -3.2759, 11.4604, 1, -3.2759, 11.4604, -1, 3.0991, -16.0585, -7.9521, 1, -0.2778, -7.9521, 1, -16.0585, -7.9521, 3.0991, -16.0585, -7.9521, 3.0991, -0.2778, -7.9521, 1, -0.2778, -7.9521, 3.0991, -0.2778, -5.5703, 3.0991, -16.0585, -7.9521, 3.0991, -16.0585, -5.5703, 3.0991, -0.2778, -5.5703, 3.0991, -0.2778, -7.9521, 3.0991, -16.0585, -7.9521, 3.0991, -16.0585, -5.5703, 1, -16.0585, -7.9521, 1, -16.0585, -5.5703, 3.0991, -16.0585, -5.5703, 3.0991, -16.0585, -7.9521, 1, -16.0585, -7.9521, 1, -16.0585, -5.5703, 1, -0.2778, -7.9521, 1, -0.2778, -5.5703, 1, -16.0585, -5.5703, 1, -16.0585, -7.9521, 1, -0.2778, -7.9521, 8.419, -16.0585, -3.4306, 8.419, -0.2778, -5.5703, 8.419, -16.0585, -5.5703, 8.419, -16.0585, -3.4306, 8.419, -0.2778, -3.4306, 8.419, -0.2778, -5.5703, 3.0991, -16.0585, -3.4306, 8.419, -16.0585, -5.5703, 3.0991, -16.0585, -5.5703, 3.0991, -16.0585, -3.4306, 8.419, -16.0585, -3.4306, 8.419, -16.0585, -5.5703, 3.0991, -0.2778, -3.4306, 8.419, -16.0585, -3.4306, 3.0991, -16.0585, -3.4306, 3.0991, -0.2778, -3.4306, 8.419, -0.2778, -3.4306, 8.419, -16.0585, -3.4306, 8.419, -0.2778, -5.5703, 3.0991, 11.8129, -5.5703, 3.0991, -0.2778, -5.5703, 8.419, -0.2778, -5.5703, 8.419, 11.8129, -5.5703, 3.0991, 11.8129, -5.5703, 3.0991, 11.8129, -5.5703, 8.419, 11.8129, -3.4306, 3.0991, 11.8129, -3.4306, 3.0991, 11.8129, -5.5703, 8.419, 11.8129, -5.5703, 8.419, 11.8129, -3.4306, 3.0991, -0.2778, -5.5703, 3.0991, 11.8129, -3.4306, 3.0991, -0.2778, -3.4306, 3.0991, -0.2778, -5.5703, 3.0991, 11.8129, -5.5703, 3.0991, 11.8129, -3.4306, 3.0991, -0.2778, -3.4306, 8.419, 11.8129, -3.4306, 8.419, -0.2778, -3.4306, 3.0991, -0.2778, -3.4306, 3.0991, 11.8129, -3.4306, 8.419, 11.8129, -3.4306, 8.419, -0.2778, -3.4306, 8.419, 11.8129, -5.5703, 8.419, -0.2778, -5.5703, 8.419, -0.2778, -3.4306, 8.419, 11.8129, -3.4306, 8.419, 11.8129, -5.5703, 8.8406, -1, -1, 8.8406, 1, 1, 8.8406, 1, -1, 8.8406, -1, -1, 8.8406, -1, 1, 8.8406, 1, 1, 8.8406, 1, 1, 8.8406, 15.8773, -1, 8.8406, 1, -1, 8.8406, 1, 1, 8.8406, 15.8773, 1, 8.8406, 15.8773, -1, 8.8406, -1, -1, 8.8406, -16.0585, 1, 8.8406, -1, 1, 8.8406, -1, -1, 8.8406, -16.0585, -1, 8.8406, -16.0585, 1, 3.0991, -16.0585, 1, 8.8406, -16.0585, -1, 3.0991, -16.0585, -1, 3.0991, -16.0585, 1, 8.8406, -16.0585, 1, 8.8406, -16.0585, -1, 3.0991, -1, 1, 8.8406, -16.0585, 1, 3.0991, -16.0585, 1, 3.0991, -1, 1, 8.8406, -1, 1, 8.8406, -16.0585, 1, 3.0991, 15.8773, 1, 8.8406, 1, 1, 3.0991, 1, 1, 3.0991, 15.8773, 1, 8.8406, 15.8773, 1, 8.8406, 1, 1, 3.0991, -1, -1, 8.8406, 1, -1, 3.0991, 1, -1, 3.0991, -1, -1, 8.8406, -1, -1, 8.8406, 1, -1, 3.0991, 15.8773, -1, 8.8406, 15.8773, 1, 3.0991, 15.8773, 1, 3.0991, 15.8773, -1, 8.8406, 15.8773, -1, 8.8406, 15.8773, 1, 9.2207, -16.0585, -1, 9.2207, -21.4216, 1, 9.2207, -16.0585, 1, 9.2207, -16.0585, -1, 9.2207, -21.4216, -1, 9.2207, -21.4216, 1, 3.0991, -16.0585, -1, 9.2207, -16.0585, 1, 3.0991, -16.0585, 1, 3.0991, -16.0585, -1, 9.2207, -16.0585, -1, 9.2207, -16.0585, 1, 3.0991, -21.4216, 1, 9.2207, -21.4216, -1, 3.0991, -21.4216, -1, 3.0991, -21.4216, 1, 9.2207, -21.4216, 1, 9.2207, -21.4216, -1, 3.0991, -16.0585, 1, 9.2207, -21.4216, 1, 3.0991, -21.4216, 1, 3.0991, -16.0585, 1, 9.2207, -16.0585, 1, 9.2207, -21.4216, 1, 9.1161, -16.0585, -3.4306, 9.1161, -21.4216, -5.5703, 9.1161, -21.4216, -3.4306, 9.1161, -16.0585, -3.4306, 9.1161, -16.0585, -5.5703, 9.1161, -21.4216, -5.5703, 3.0991, -16.0585, -5.5703, 9.1161, -16.0585, -3.4306, 3.0991, -16.0585, -3.4306, 3.0991, -16.0585, -5.5703, 9.1161, -16.0585, -5.5703, 9.1161, -16.0585, -3.4306, 3.0991, -16.0585, -3.4306, 9.1161, -21.4216, -3.4306, 3.0991, -21.4216, -3.4306, 3.0991, -16.0585, -3.4306, 9.1161, -16.0585, -3.4306, 9.1161, -21.4216, -3.4306, 3.0991, -21.4216, -5.5703, 9.1161, -16.0585, -5.5703, 3.0991, -16.0585, -5.5703, 3.0991, -21.4216, -5.5703, 9.1161, -21.4216, -5.5703, 9.1161, -16.0585, -5.5703, 11.7859, -16.0585, -8.6314, 15.1528, -0.2778, -8.6314, 11.7859, -0.2778, -8.6314, 11.7859, -16.0585, -8.6314, 15.1528, -16.0585, -8.6314, 15.1528, -0.2778, -8.6314, 3.0991, -0.2778, -7.9521, 8.419, -16.0585, -8.6314, 8.419, -0.2778, -8.6314, 3.0991, -0.2778, -7.9521, 3.0991, -16.0585, -7.9521, 8.419, -16.0585, -8.6314, 8.419, -0.2778, -5.5703, 3.0991, -0.2778, -7.9521, 8.419, -0.2778, -8.6314, 8.419, -0.2778, -5.5703, 3.0991, -0.2778, -5.5703, 3.0991, -0.2778, -7.9521, 8.419, -16.0585, -5.5703, 3.0991, -16.0585, -5.5703, 9.1161, -16.0585, -5.5703, 3.0991, -16.0585, -5.5703, 8.419, -16.0585, -8.6314, 3.0991, -16.0585, -7.9521, 3.0991, -16.0585, -5.5703, 8.419, -16.0585, -5.5703, 8.419, -16.0585, -8.6314, 9.2161, 0.1411, -1, 9.2161, -21.4216, -3.4306, 9.2161, -21.4216, -1, 9.2161, 0.1411, -1, 9.2161, 0.1411, -3.4306, 9.2161, -21.4216, -3.4306, 6.1576, -11.5051, -1, 9.2161, -21.4216, -1, 6.1576, -21.4216, -1, 6.1576, -11.5051, -1, 9.2161, 0.1411, -1, 9.2161, -21.4216, -1, 6.1576, -21.4216, -1, 9.2161, -21.4216, -3.4306, 6.1576, -21.4216, -3.4306, 6.1576, -21.4216, -1, 9.2161, -21.4216, -1, 9.2161, -21.4216, -3.4306, 6.1576, -21.4216, -3.4306, 9.2161, 0.1411, -3.4306, 6.1576, -11.5051, -3.4306, 6.1576, -21.4216, -3.4306, 9.2161, -21.4216, -3.4306, 9.2161, 0.1411, -3.4306, 3.0991, -21.4216, -3.4306, 6.1576, -11.5051, -3.4306, 3.0991, -16.0585, -3.4306, 3.0991, -21.4216, -3.4306, 6.1576, -21.4216, -3.4306, 6.1576, -11.5051, -3.4306, 3.0991, -21.4216, -1, 6.1576, -21.4216, -3.4306, 3.0991, -21.4216, -3.4306, 3.0991, -21.4216, -1, 6.1576, -21.4216, -1, 6.1576, -21.4216, -3.4306, 3.0991, -16.0585, -1, 6.1576, -21.4216, -1, 3.0991, -21.4216, -1, 3.0991, -16.0585, -1, 6.1576, -11.5051, -1, 6.1576, -21.4216, -1, 3.0991, -16.0585, -3.4306, 6.1576, -11.5051, -1, 3.0991, -16.0585, -1, 3.0991, -16.0585, -3.4306, 6.1576, -11.5051, -3.4306, 6.1576, -11.5051, -1, -4.123, -17.9111, -1.087, -4.123, 7.6371, -3.3436, -4.123, -17.9111, -3.3436, -4.123, -17.9111, -1.087, -4.123, 7.6371, -1.087, -4.123, 7.6371, -3.3436, -3.2759, -16.0585, -3.4306, -4.123, 7.6371, -3.3436, -3.2759, 11.4604, -3.4306, -3.2759, -16.0585, -3.4306, -4.123, -17.9111, -3.3436, -4.123, 7.6371, -3.3436, -3.2759, -16.0585, -1, -4.123, -17.9111, -3.3436, -3.2759, -16.0585, -3.4306, -3.2759, -16.0585, -1, -4.123, -17.9111, -1.087, -4.123, -17.9111, -3.3436, -3.2759, 11.4604, -1, -4.123, -17.9111, -1.087, -3.2759, -16.0585, -1, -3.2759, 11.4604, -1, -4.123, 7.6371, -1.087, -4.123, -17.9111, -1.087, 15.1528, -0.2778, -5.5703, 15.1528, -16.0585, -8.6314, 15.1528, -16.0585, -5.5703, 15.1528, -0.2778, -5.5703, 15.1528, -0.2778, -8.6314, 15.1528, -16.0585, -8.6314, 11.7859, -0.2778, -8.6314, 15.1528, -0.2778, -5.5703, 11.7859, -0.2778, -5.5703, 11.7859, -0.2778, -8.6314, 15.1528, -0.2778, -8.6314, 15.1528, -0.2778, -5.5703, 12.9752, -0.8468, -2.5991, 13.0498, -4.4729, -1.9824, 12.9752, -0.8468, -1.9843, 12.9752, -0.8468, -2.5991, 13.0498, -4.4729, -2.5972, 13.0498, -4.4729, -1.9824, 11.7859, -16.0585, -5.5703, 15.1528, -16.0585, -8.6314, 11.7859, -16.0585, -8.6314, 11.7859, -16.0585, -5.5703, 15.1528, -16.0585, -5.5703, 15.1528, -16.0585, -8.6314, 8.419, -16.0585, -5.5703, 11.7859, -16.0585, -8.6314, 8.419, -16.0585, -8.6314, 8.419, -16.0585, -5.5703, 11.7859, -16.0585, -5.5703, 11.7859, -16.0585, -8.6314, 8.419, -0.2778, -5.5703, 11.7859, -16.0585, -5.5703, 8.419, -16.0585, -5.5703, 8.419, -0.2778, -5.5703, 11.7859, -0.2778, -5.5703, 11.7859, -16.0585, -5.5703, 8.419, -0.2778, -8.6314, 11.7859, -0.2778, -5.5703, 8.419, -0.2778, -5.5703, 8.419, -0.2778, -8.6314, 11.7859, -0.2778, -8.6314, 11.7859, -0.2778, -5.5703, 8.419, -16.0585, -8.6314, 11.7859, -0.2778, -8.6314, 8.419, -0.2778, -8.6314, 8.419, -16.0585, -8.6314, 11.7859, -16.0585, -8.6314, 11.7859, -0.2778, -8.6314, 11.7859, -0.2778, -0.7864, 15.1528, -16.0585, -0.7864, 11.7859, -16.0585, -0.7864, 11.7859, -0.2778, -0.7864, 15.1528, -0.2778, -0.7864, 15.1528, -16.0585, -0.7864, 11.7859, -0.2778, -5.5703, 11.7859, -16.0585, -0.7864, 11.7859, -16.0585, -5.5703, 11.7859, -0.2778, -5.5703, 11.7859, -0.2778, -0.7864, 11.7859, -16.0585, -0.7864, 15.1528, -16.0585, -5.5703, 15.1528, -0.2778, -0.7864, 15.1528, -0.2778, -5.5703, 15.1528, -16.0585, -5.5703, 15.1528, -16.0585, -0.7864, 15.1528, -0.2778, -0.7864, 11.7859, -16.0585, -5.5703, 15.1528, -16.0585, -0.7864, 15.1528, -16.0585, -5.5703, 11.7859, -16.0585, -5.5703, 11.7859, -16.0585, -0.7864, 15.1528, -16.0585, -0.7864, 12.7475, -0.2778, -2.8267, 15.1528, -0.2778, -5.5703, 14.3444, -0.2778, -2.8267, 12.7475, -0.2778, -2.8267, 11.7859, -0.2778, -5.5703, 15.1528, -0.2778, -5.5703, 14.3444, -0.2778, -1.7567, 11.7859, -0.2778, -0.7864, 12.7475, -0.2778, -1.7567, 14.3444, -0.2778, -1.7567, 15.1528, -0.2778, -0.7864, 11.7859, -0.2778, -0.7864, 12.7475, -0.2778, -1.7567, 11.7859, -0.2778, -5.5703, 12.7475, -0.2778, -2.8267, 12.7475, -0.2778, -1.7567, 11.7859, -0.2778, -0.7864, 11.7859, -0.2778, -5.5703, 14.3444, -0.2778, -2.8267, 15.1528, -0.2778, -0.7864, 14.3444, -0.2778, -1.7567, 14.3444, -0.2778, -2.8267, 15.1528, -0.2778, -5.5703, 15.1528, -0.2778, -0.7864, 12.9752, -0.8468, -2.5991, 14.3444, -0.2778, -2.8267, 14.1167, -0.8468, -2.5991, 12.9752, -0.8468, -2.5991, 12.7475, -0.2778, -2.8267, 14.3444, -0.2778, -2.8267, 14.1167, -0.8468, -1.9843, 12.7475, -0.2778, -1.7567, 12.9752, -0.8468, -1.9843, 14.1167, -0.8468, -1.9843, 14.3444, -0.2778, -1.7567, 12.7475, -0.2778, -1.7567, 12.9752, -0.8468, -1.9843, 12.7475, -0.2778, -2.8267, 12.9752, -0.8468, -2.5991, 12.9752, -0.8468, -1.9843, 12.7475, -0.2778, -1.7567, 12.7475, -0.2778, -2.8267, 14.1167, -0.8468, -2.5991, 14.3444, -0.2778, -1.7567, 14.1167, -0.8468, -1.9843, 14.1167, -0.8468, -2.5991, 14.3444, -0.2778, -2.8267, 14.3444, -0.2778, -1.7567, 14.1914, -4.4729, -2.5972, 13.0498, -4.4729, -1.9824, 13.0498, -4.4729, -2.5972, 14.1914, -4.4729, -2.5972, 14.1914, -4.4729, -1.9824, 13.0498, -4.4729, -1.9824, 14.1167, -0.8468, -2.5991, 13.0498, -4.4729, -2.5972, 12.9752, -0.8468, -2.5991, 14.1167, -0.8468, -2.5991, 14.1914, -4.4729, -2.5972, 13.0498, -4.4729, -2.5972, 14.1167, -0.8468, -1.9843, 14.1914, -4.4729, -2.5972, 14.1167, -0.8468, -2.5991, 14.1167, -0.8468, -1.9843, 14.1914, -4.4729, -1.9824, 14.1914, -4.4729, -2.5972, 12.9752, -0.8468, -1.9843, 14.1914, -4.4729, -1.9824, 14.1167, -0.8468, -1.9843, 12.9752, -0.8468, -1.9843, 13.0498, -4.4729, -1.9824, 14.1914, -4.4729, -1.9824 )

[node name="RockPush" instance=ExtResource( 2 )]

[node name="Cube" parent="." index="0"]
material/0 = ExtResource( 1 )

[node name="StaticBody" type="StaticBody" parent="Cube" index="0"]

[node name="CollisionShape" type="CollisionShape" parent="Cube/StaticBody" index="0"]
shape = SubResource( 1 )
